/* XPM */
static char * minpr_xpm[] = {
"16 16 22 1",
" 	c #FF9966",
".	c #FF9963",
"+	c #FF975E",
"@	c #FF945C",
"#	c #616161",
"$	c #FF9055",
"%	c #FF8B51",
"&	c #FF894B",
"*	c #FF8048",
"=	c #FF8447",
"-	c #FF7F47",
";	c #995454",
">	c #995554",
",	c #FF7C44",
"'	c #FF7B44",
")	c #FF7244",
"!	c #FF7244",
"~	c #FF6B42",
"{	c #FF6740",
"]	c #FF633F",
"^	c #FF603E",
"/	c #FF633C",
"                ",
"..++++..++++++++",
"@@############@@",
"$$#$$$$$$$$$$#$$",
"%%#%%%%%%%%%%#%%",
"&&#&&&&&&&&&&#&&",
"**#**********#**",
"==#-=;>>>;>-=#=-",
",,#,,;;;;;;,,#,,",
"''#''''''''''#''",
"))#))))))))))#))",
"!!#!!!!!!!!!!#!!",
"~~#~~~~~~~~~~#~~",
"{{############{{",
"]^^^^^]^^^^^^^^^",
"////////////////"};
